{
  "model": {
    "type": "cnn",
    "input_shape": [256, 256, 1],
    "dropout": 0.5,
    "lr": 1e-7,
    "nb_kers": 32,
    "nb_classes": 120
  },
  "experiment": {
    "name": "cnn-1",
    "data_dir": "/usr/local/data/tnair/data/stanford_dogs/",
    "hdf5file": "stanford_dogs_256x256x1.hdf5",
    "outdir": "/usr/local/data/tnair/projects/stanford_dogs/expts/",
    "weights": "/usr/local/data/tnair/projects/stanford_dogs/expts/cnn-1/cnn_weights_027_4.787.hdf5",
    "nb_train": 17000,
    "nb_valid": 2000,
    "batch_size": 32,
    "nb_gen_img": 25
  }
}
